GET https://waya-mentorled.onrender.com/api/familywallet/allowances/?page=1 - 200
{
  "count": 1,
  "next": null,
  "previous": null,
  "results": [
    {
      "id": "ddd75abb-ba33-45ae-854c-fb67dd1b4619",
      "parent_id": "bbfe0df3-3f78-4f4d-90fb-752c385cb8b4",
      "child_id": "c21b9a19-73c0-497d-b102-9719e25bfc24",
      "amount": "3000.00",
      "frequency": "weekly",
      "status": "active",
      "created_at": "2025-07-03T16:30:19.782412Z",
      "last_paid_at": null,
      "next_payment_date": null
    }
  ]
}

POST https://waya-mentorled.onrender.com/api/familywallet/allowances/ - Error: response status is 500
TypeError at /api/familywallet/allowances/
django.db.models.query.QuerySet.create() got multiple values for keyword argument 'parent'

Request Method: POST
Request URL: https://waya-mentorled.onrender.com/api/familywallet/allowances/
Django Version: 5.2
Python Executable: /opt/render/project/src/.venv/bin/python
Python Version: 3.13.4
Python Path: ['/opt/render/project/src', '/opt/render/project/src', '/opt/render/project/src/.venv/bin', '/usr/local/lib/python313.zip', '/usr/local/lib/python3.13', '/usr/local/lib/python3.13/lib-dynload', '/opt/render/project/src/.venv/lib/python3.13/site-packages']
Server time: Fri, 04 Jul 2025 11:14:57 +0000
Installed Applications:
['django.contrib.admin',]


GET https://waya-mentorled.onrender.com/api/familywallet/allowances/ {id}/ - 200
{
  "id": "ddd75abb-ba33-45ae-854c-fb67dd1b4619",
  "parent_id": "bbfe0df3-3f78-4f4d-90fb-752c385cb8b4",
  "child_id": "c21b9a19-73c0-497d-b102-9719e25bfc24",
  "amount": "3000.00",
  "frequency": "weekly",
  "status": "active",
  "created_at": "2025-07-03T16:30:19.782412Z",
  "last_paid_at": null,
  "next_payment_date": null
}

PUT https://waya-mentorled.onrender.com/api/familywallet/allowances/{id}/ - Error: response status is 500
PATCH https://waya-mentorled.onrender.com/api/familywallet/allowances/{id}/ - Error: response status is 500
DELETE https://waya-mentorled.onrender.com/api/familywallet/allowances/{id}/ - 204

//CHILD WALLET
GET https://waya-mentorled.onrender.com/api/familywallet/child-wallets/?page=1 - 200
{
  "count": 2,
  "next": null,
  "previous": null,
  "results": [
    {
      "id": "02a195a3-b4ab-4621-8927-ac0eb908e675",
      "child_name": "Toluwani Dada",
      "balance": "400.00",
      "total_earned": "100.00",
      "total_spent": "200.00",
      "savings_rate": "0.00"
    },
    {
      "id": "64f2d5e0-aec0-4359-bf65-f79859b4dc2d",
      "child_name": "Akorede Oguntolu",
      "balance": "1500.00",
      "total_earned": "150.00",
      "total_spent": "300.00",
      "savings_rate": "0.00"
    }
  ]
}



GET https://waya-mentorled.onrender.com/api/familywallet/child-wallets/analysis/ - 200
{
  "family_wallet_balance": 500700,
  "total_rewards_sent": 5800,
  "total_rewards_pending": 0,
  "activities": [
    {
      "name": "Akorede Oguntolu",
      "activity": "For a job well done",
      "amount": 3000,
      "status": "paid",
      "date": "2025-07-01"
    },
    {
      "name": "Akorede Oguntolu",
      "activity": "Testing chore 4",
      "amount": 2000,
      "status": "paid",
      "date": "2025-07-03"
    },
    {
      "name": "N/A",
      "activity": "from swagger.",
      "amount": 1500,
      "status": "cancelled",
      "date": "2025-07-04"
    },
    {
      "name": "Akorede Oguntolu",
      "activity": "Reward for chore 5b7cca22-4ab6-440e-a708-d2bb85d7be2f",
      "amount": 800,
      "status": "paid",
      "date": "2025-07-04"
    }
  ],
  "savings_breakdown": [
    {
      "child_name": "Toluwani Dada",
      "reward_saved": 400,
      "reward_spent": 200,
      "total_earned": 100,
      "savings_rate": 0
    },
    {
      "child_name": "Akorede Oguntolu",
      "reward_saved": 1500,
      "reward_spent": 300,
      "total_earned": 150,
      "savings_rate": 0
    }
  ]
}





GET https://waya-mentorled.onrender.com/api/familywallet/transactions/?page=1 - 200
{
  "count": 3,
  "next": null,
  "previous": null,
  "results": [
    {
      "id": "16d6e7d7-158a-43f4-a4ae-c2a17cb5dc2c",
      "family_wallet_id": "55539bed-8df0-421e-9c21-98be51778565",
      "child_id": "c21b9a19-73c0-497d-b102-9719e25bfc24",
      "type": "allowance_payment",
      "amount": "3000.00",
      "status": "pending",
      "description": "For a job well done",
      "created_at": "2025-07-01T14:01:11.844228Z",
      "completed_at": null
    },
    {
      "id": "d3a130f1-b3eb-4ec3-89fe-a64e18182d89",
      "family_wallet_id": "55539bed-8df0-421e-9c21-98be51778565",
      "child_id": "c21b9a19-73c0-497d-b102-9719e25bfc24",
      "type": "chore_reward",
      "amount": "2000.00",
      "status": "paid",
      "description": "Testing chore 4",
      "created_at": "2025-07-03T16:58:36.033674Z",
      "completed_at": null
    },
    {
      "id": "fba6adc4-1222-4d0b-9ec5-10287de201eb",
      "family_wallet_id": "55539bed-8df0-421e-9c21-98be51778565",
      "type": "allowance_payment",
      "amount": "1500.00",
      "status": "paid",
      "description": "from swagger.",
      "created_at": "2025-07-04T10:06:23.369532Z",
      "completed_at": null
    }
  ]
}

POST https://waya-mentorled.onrender.com/api/familywallet/transactions/ - Error: response status is 500 Though there was nothing in the request body for this so I do not know if the I was right but the error is consistent with the other error 500
Error response {IntegrityError at /api/familywallet/transactions/
null value in column "amount" of relation "familywallet_transaction" violates not-null constraint
DETAIL:  Failing row contains (8ab068df-9839-4905-abc2-92e25caa831a, chore_reward, null, , pending, 2025-07-04 10:52:03.846483+00, null, null, null, null).


Request Method: POST
Request URL: https://waya-mentorled.onrender.com/api/familywallet/transactions/
Django Version: 5.2
Python Executable: /opt/render/project/src/.venv/bin/python
Python Version: 3.13.4
Python Path: ['/opt/render/project/src', '/opt/render/project/src', '/opt/render/project/src/.venv/bin', '/usr/local/lib/python313.zip', '/usr/local/lib/python3.13', '/usr/local/lib/python3.13/lib-dynload', '/opt/render/project/src/.venv/lib/python3.13/site-packages']
Server time: Fri, 04 Jul 2025 10:52:05 +0000
Installed Applications:
['django.contrib.admin',}

GET https://waya-mentorled.onrender.com/api/familywallet/transactions/{id}/ - 200
{
  "id": "fba6adc4-1222-4d0b-9ec5-10287de201eb",
  "family_wallet_id": "55539bed-8df0-421e-9c21-98be51778565",
  "type": "allowance_payment",
  "amount": "1500.00",
  "status": "paid",
  "description": "from swagger.",
  "created_at": "2025-07-04T10:06:23.369532Z",
  "completed_at": null
}


POST https://waya-mentorled.onrender.com/api/familywallet/transactions/{id}/cancel/ - 200
{
  "message": "Transaction cancelled successfully",
  "transaction": {
    "id": "fba6adc4-1222-4d0b-9ec5-10287de201eb",
    "family_wallet_id": "55539bed-8df0-421e-9c21-98be51778565",
    "type": "allowance_payment",
    "amount": "1500.00",
    "status": "cancelled",
    "description": "from swagger.",
    "created_at": "2025-07-04T10:06:23.369532Z",
    "completed_at": null
  }
}

POST https://waya-mentorled.onrender.com/api/familywallet/transactions/{id}/complete/ - 200
{
  "message": "Transaction completed successfully",
  "transaction": {
    "id": "fba6adc4-1222-4d0b-9ec5-10287de201eb",
    "family_wallet_id": "55539bed-8df0-421e-9c21-98be51778565",
    "type": "allowance_payment",
    "amount": "1500.00",
    "status": "paid",
    "description": "from swagger.",
    "created_at": "2025-07-04T10:06:23.369532Z",
    "completed_at": "2025-07-04T10:58:40.370105Z"
  }
}

POST https://waya-mentorled.onrender.com/api/familywallet/transactions/complete_multiple/ - Error: response status is 400. there is no transactions ID hence the error

GET https://waya-mentorled.onrender.com/api/familywallet/transactions/recent_activities/ - 200
[
  {
    "id": "d3a130f1-b3eb-4ec3-89fe-a64e18182d89",
    "family_wallet_id": "55539bed-8df0-421e-9c21-98be51778565",
    "child_id": "c21b9a19-73c0-497d-b102-9719e25bfc24",
    "type": "chore_reward",
    "amount": "2000.00",
    "status": "paid",
    "description": "Testing chore 4",
    "created_at": "2025-07-03T16:58:36.033674Z",
    "completed_at": null
  },
  {
    "id": "16d6e7d7-158a-43f4-a4ae-c2a17cb5dc2c",
    "family_wallet_id": "55539bed-8df0-421e-9c21-98be51778565",
    "child_id": "c21b9a19-73c0-497d-b102-9719e25bfc24",
    "type": "allowance_payment",
    "amount": "3000.00",
    "status": "pending",
    "description": "For a job well done",
    "created_at": "2025-07-01T14:01:11.844228Z",
    "completed_at": null
  }
]

GET https://waya-mentorled.onrender.com/api/familywallet/wallet/?page=1 - 200
{
  "count": 1,
  "next": null,
  "previous": null,
  "results": [
    {
      "id": "55539bed-8df0-421e-9c21-98be51778565",
      "parent_id": "bbfe0df3-3f78-4f4d-90fb-752c385cb8b4",
      "balance": "500000.00",
      "currency": "Naira",
      "updated_at": "2025-07-01T14:00:09.989610Z"
    }
  ]
}

POST https://waya-mentorled.onrender.com/api/familywallet/wallet/add_funds/ - 200
{
  "message": "Funds added successfully",
  "new_balance": 501500,
  "transaction_id": "fba6adc4-1222-4d0b-9ec5-10287de201eb"
}

GET https://waya-mentorled.onrender.com/api/familywallet/wallet/dashboard_stats/ - 200
{
  "family_wallet_balance": "501500.00",
  "total_rewards_sent": "5000.00",
  "total_rewards_pending": "0.00",
  "children_count": 2,
  "total_children_balance": "1900.00"
}

GET https://waya-mentorled.onrender.com/api/familywallet/wallet/earnings_chart_data/ - 200
{
  "2025-07-03": {
    "Akorede Oguntolu": 2000
  }
}

POST https://waya-mentorled.onrender.com/api/familywallet/wallet/set_pin/ - 200
{
  "message": "PIN set successfully"
}

POST https://waya-mentorled.onrender.com/api/familywallet/wallet/make_payment/ - 200
{
  "message": "Payment successful",
  "transaction_id": "d74a8a6e-b3f2-4100-961c-61a1df5d2feb",
  "amount": 800
}

GET https://waya-mentorled.onrender.com/api/familywallet/wallet/savings_breakdown/ - 200
[
  {
    "child_name": "Toluwani Dada",
    "reward_saved": 400,
    "reward_spent": 200,
    "total_earned": 100,
    "savings_rate": 0
  },
  {
    "child_name": "Akorede Oguntolu",
    "reward_saved": 1500,
    "reward_spent": 300,
    "total_earned": 150,
    "savings_rate": 0
  }
]

POST https://waya-mentorled.onrender.com/api/familywallet/wallet/transfer/ - 200
{
  "message": "Transfer successful.",
  "transaction_id": "d696ab41-aa76-4fd8-91c9-eb8e4e86a06c",
  "new_balance": "491100.00"
}

//Insight Tracker
GET https://waya-mentorled.onrender.com/api/insighttracker/chores/insights/
{
  "total_chores_assigned": 8,
  "total_completed_chores": 3,
  "total_pending_chores": 5,
  "child_activities": [
    {
      "child_name": "toluwani",
      "activities": [
        {
          "chore_title": "Testing Chore 1",
          "reward": 10000,
          "status": "completed"
        },
        {
          "chore_title": "Just do something",
          "reward": 909,
          "status": "pending"
        }
      ],
      "total_earned": 10000
    },
    {
      "child_name": "precious",
      "activities": [
        {
          "chore_title": "Testing chore 2",
          "reward": 200,
          "status": "pending"
        }
      ],
      "total_earned": 0
    },
    {
      "child_name": "ibk",
      "activities": [
        {
          "chore_title": "Testing Chore 3",
          "reward": 4567,
          "status": "pending"
        }
      ],
      "total_earned": 0
    },
    {
      "child_name": "maverick",
      "activities": [
        {
          "chore_title": "Testing Chore 4",
          "reward": 5000,
          "status": "completed"
        },
        {
          "chore_title": "Creating for the Kid Akorede",
          "reward": 1500,
          "status": "pending"
        },
        {
          "chore_title": "For Curl Testing",
          "reward": 45,
          "status": "completed"
        },
        {
          "chore_title": "From Swagger Task",
          "reward": 800,
          "status": "pending"
        }
      ],
      "total_earned": 5045
    }
  ]
}


//TaskMaster 
GET https://waya-mentorled.onrender.com/api/taskmaster/children/chores/?page=1
{
  "count": 0,
  "next": null,
  "previous": null,
  "results": []
}
PUT https://waya-mentorled.onrender.com/api/taskmaster/children/chores/{id}/status/ - 403
{
  "detail": "You do not have permission to perform this action."
}

PATCH https://waya-mentorled.onrender.com/api/taskmaster/children/chores/{id}/status/ - 403
{
  "detail": "You do not have permission to perform this action."
}

GET https://waya-mentorled.onrender.com/api/taskmaster/chores/?page=2 - 200
{
  "count": 9,
  "next": "https://waya-mentorled.onrender.com/api/taskmaster/chores/?page=3",
  "previous": "https://waya-mentorled.onrender.com/api/taskmaster/chores/",
  "results": [
    {
      "id": "25b5808e-4a75-4df4-9ae9-bab276faf673",
      "title": "Testing Chore 4",
      "description": "Akorede wash the car before going to school",
      "assignedTo": "c21b9a19-73c0-497d-b102-9719e25bfc24",
      "assignedToName": "Akorede Oguntolu",
      "assignedToUsername": "maverick",
      "status": "completed",
      "amount": "5000.00",
      "createdAt": "2025-07-02T08:18:30.323193Z",
      "completedAt": "2025-07-02T17:52:35.907332Z",
      "parentId": "bbfe0df3-3f78-4f4d-90fb-752c385cb8b4",
      "category": "Household"
    },
    {
      "id": "a1637d65-34c3-4023-84c2-86b5f3bffa58",
      "title": "Just do something",
      "description": "to be edited",
      "assignedTo": "0d5d1fd9-1a50-4372-a6ce-6d1beeec434a",
      "assignedToName": "Toluwani Dada",
      "assignedToUsername": "toluwani",
      "status": "pending",
      "amount": "909.00",
      "createdAt": "2025-07-02T11:59:56.218853Z",
      "completedAt": null,
      "parentId": "bbfe0df3-3f78-4f4d-90fb-752c385cb8b4",
      "category": "Household"
    },
    {
      "id": "3126d087-fcb1-4c5f-9037-84b4739cef4b",
      "title": "Creating for the Kid Akorede",
      "description": "Wanna see if I will see it on the kids dashboard",
      "assignedTo": "c21b9a19-73c0-497d-b102-9719e25bfc24",
      "assignedToName": "Akorede Oguntolu",
      "assignedToUsername": "maverick",
      "status": "pending",
      "amount": "1500.00",
      "createdAt": "2025-07-02T15:07:49.128546Z",
      "completedAt": null,
      "parentId": "bbfe0df3-3f78-4f4d-90fb-752c385cb8b4",
      "category": "Household"
    }
  ]
}

GET https://waya-mentorled.onrender.com/api/taskmaster/chores/{id} - 200
{
  "id": "25b5808e-4a75-4df4-9ae9-bab276faf673",
  "title": "Testing Chore 4",
  "description": "Akorede wash the car before going to school",
  "assignedTo": "c21b9a19-73c0-497d-b102-9719e25bfc24",
  "assignedToName": "Akorede Oguntolu",
  "assignedToUsername": "maverick",
  "status": "completed",
  "amount": "5000.00",
  "createdAt": "2025-07-02T08:18:30.323193Z",
  "completedAt": "2025-07-02T17:52:35.907332Z",
  "parentId": "bbfe0df3-3f78-4f4d-90fb-752c385cb8b4",
  "category": "Household"
}

PUT https://waya-mentorled.onrender.com/api/taskmaster/chores/{id} - 200
{
  "id": "25b5808e-4a75-4df4-9ae9-bab276faf673",
  "title": "Update the task",
  "description": "Doing that from swagger",
  "reward": "100.00",
  "due_date": "2025-07-05",
  "status": "completed",
  "created_at": "2025-07-02T08:18:30.323193Z",
  "completed_at": "2025-07-02T17:52:35.907332Z"
}

PATCH https://waya-mentorled.onrender.com/api/taskmaster/chores/{id} - 200
{
  "id": "25b5808e-4a75-4df4-9ae9-bab276faf673",
  "title": "Patch the task",
  "description": "Doings from swagger",
  "reward": "150.00",
  "due_date": "2025-07-05",
  "status": "completed",
  "created_at": "2025-07-02T08:18:30.323193Z",
  "completed_at": "2025-07-02T17:52:35.907332Z"
}


DELETE https://waya-mentorled.onrender.com/api/taskmaster/chores/{id} - 204
DELETE https://waya-mentorled.onrender.com/api/taskmaster/chores/{id}delete - 204

PUT https://waya-mentorled.onrender.com/api/taskmaster/chores/{id}/status - 200
{
  "status": "completed"
}

PATCH https://waya-mentorled.onrender.com/api/taskmaster/chores/{id}/status - 200
{
  "status": "pending"
}

POST https://waya-mentorled.onrender.com/api/taskmaster/chores/create/ - 200
{
  "id": "d93ea351-2d2f-4010-b842-73cd93a9d760",
  "title": "From Swagger Task 2",
  "description": "Created from swagger",
  "assignedTo": "c21b9a19-73c0-497d-b102-9719e25bfc24",
  "assignedToName": "Akorede Oguntolu",
  "assignedToUsername": "maverick",
  "status": "pending",
  "amount": "500.00",
  "createdAt": "2025-07-04T11:44:17.714871Z",
  "completedAt": null,
  "parentId": "bbfe0df3-3f78-4f4d-90fb-752c385cb8b4",
  "category": "Household"
}

GET https://waya-mentorled.onrender.com/api/taskmaster/chores/summary/
{
  "pending": 7,
  "completed": 2,
  "missed": 0,
  "total": 9
}


// SETTINGS PAGE
GET https://waya-mentorled.onrender.com/api/settings_waya/profile/ - 200
{
    "avatar": "https://waya-mentorled.onrender.com/media/avatars/postman.jpg",
    "full_name": "Dan Dada",
    "email": "double.deemedia@gmail.com",
    "family_name": ""
}

GET https://waya-mentorled.onrender.com/api/settings_waya/children/{id}/ - 200
{
    "id": "26825928-6eb4-4aaf-8a84-047529ac48f8",
    "name": "Akorede Oguntolu",
    "username": "maverick",
    "avatar": null
}

POST https://waya-mentorled.onrender.com/api/settings_waya/password-reset/ - 200
{
    "detail": "Password changed successfully."
}

GET https://waya-mentorled.onrender.com/api/settings_waya/notification-settings/ - 200
{
    "chore_completion": true,
    "reward_redemption": true,
    "chore_reminder": true,
    "weekly_summary": true
}

GET https://waya-mentorled.onrender.com/api/settings_waya/reward-settings/ - 200
{
    "reward_approval_required": false,
    "max_daily_reward": 0,
    "allow_savings": true
}










//CHILDREN WORKING ENDPOINTS
GET https://waya-mentorled.onrender.com/api/familywallet/child-wallets/analysis/
{
  "family_wallet_balance": 1010000,
  "total_rewards_sent": 580700,
  "total_rewards_pending": 101000,
  "activities": [
    {
      "name": "Marvelous Alabi",
      "activity": "Manual fund transfer",
      "amount": 200,
      "status": "paid",
      "date": "2025-07-07"
    },
    {
      "name": "Marvelous Alabi",
      "activity": "7th of July earnings",
      "amount": 100000,
      "status": "paid",
      "date": "2025-07-07"
    },
    {
      "name": "Marvelous Alabi",
      "activity": "Check for top earner",
      "amount": 210000,
      "status": "paid",
      "date": "2025-07-05"
    },
    {
      "name": "Marvelous Alabi",
      "activity": "Top up",
      "amount": 100000,
      "status": "cancelled",
      "date": "2025-07-05"
    },
    {
      "name": "Marvelous Alabi",
      "activity": "Fund transfer from django admin",
      "amount": 10000,
      "status": "paid",
      "date": "2025-07-05"
    },
    {
      "name": "Toluwani Ogunde",
      "activity": "Reward for chore e81df8a7-7877-4e57-9225-9a1c5cf9a69b",
      "amount": 5000,
      "status": "paid",
      "date": "2025-07-07"
    },
    {
      "name": "Rebecca Balogun",
      "activity": "Reward for chore 7dec27f2-5e08-481b-94f9-2d5257c88648",
      "amount": 5500,
      "status": "paid",
      "date": "2025-07-07"
    },
    {
      "name": "Akins Sam",
      "activity": "Reward for chore 682e07f2-a998-4fa6-bb20-f95737d38ded",
      "amount": 45000,
      "status": "paid",
      "date": "2025-07-07"
    },
    {
      "name": "Akins Sam",
      "activity": "Top up",
      "amount": 100000,
      "status": "pending",
      "date": "2025-07-05"
    },
    {
      "name": "Akins Sam",
      "activity": "Reward for chore 682e07f2-a998-4fa6-bb20-f95737d38ded",
      "amount": 45000,
      "status": "paid",
      "date": "2025-07-05"
    },
    {
      "name": "Akorede Oguntolu",
      "activity": "Manual fund transfer",
      "amount": 150000,
      "status": "paid",
      "date": "2025-07-05"
    },
    {
      "name": "Akorede Oguntolu",
      "activity": "For a job well done",
      "amount": 1000,
      "status": "pending",
      "date": "2025-07-05"
    },
    {
      "name": "N/A",
      "activity": "Add funds to parent wallet",
      "amount": 10000,
      "status": "paid",
      "date": "2025-07-09"
    }
  ],
  "savings_breakdown": [
    {
      "child_name": "Akorede Oguntolu",
      "reward_saved": 2000,
      "reward_spent": 0,
      "total_earned": 2000,
      "savings_rate": 0
    },
    {
      "child_name": "Akins Sam",
      "reward_saved": 2000,
      "reward_spent": 1000,
      "total_earned": 3000,
      "savings_rate": 0
    },
    {
      "child_name": "Marvelous Alabi",
      "reward_saved": 3000,
      "reward_spent": 1000,
      "total_earned": 5000,
      "savings_rate": 0
    },
    {
      "child_name": "Toluwani Ogunde",
      "reward_saved": 0,
      "reward_spent": 0,
      "total_earned": 0,
      "savings_rate": 0
    },
    {
      "child_name": "Rebecca Balogun",
      "reward_saved": 0,
      "reward_spent": 0,
      "total_earned": 0,
      "savings_rate": 0
    },
    {
      "child_name": "Post Man",
      "reward_saved": 0,
      "reward_spent": 0,
      "total_earned": 0,
      "savings_rate": 0
    }
  ]
}

GET https://waya-mentorled.onrender.com/api/familywallet/child-wallets/?page=1
{
  "count": 6,
  "next": "https://waya-mentorled.onrender.com/api/familywallet/child-wallets/?page=2",
  "previous": null,
  "results": [
    {
      "id": "6841b298-eb1b-445d-8e4f-317b7b4500d5",
      "child_name": "Akorede Oguntolu",
      "balance": "2000.00",
      "total_earned": "2000.00",
      "total_spent": "0.00",
      "savings_rate": "0.00",
      "child_id": "26825928-6eb4-4aaf-8a84-047529ac48f8"
    },
    {
      "id": "85d4dd3b-fecd-483c-b199-ee8c483422bc",
      "child_name": "Akins Sam",
      "balance": "2000.00",
      "total_earned": "3000.00",
      "total_spent": "1000.00",
      "savings_rate": "0.00",
      "child_id": "eee509bb-4f60-48d7-b6d0-64765e364b90"
    },
    {
      "id": "86173bf1-76a4-45be-a3d6-8a99ef1b3929",
      "child_name": "Marvelous Alabi",
      "balance": "3000.00",
      "total_earned": "5000.00",
      "total_spent": "1000.00",
      "savings_rate": "0.00",
      "child_id": "71eb1ca5-0741-4b80-be11-a411d645e89a"
    }
  ]
}



//CHOREQUEST
GET https://waya-mentorled.onrender.com/api/chorequest/chores/?page=1 - 200
{
  "count": 123,
  "next": "https://waya-mentorled.onrender.com/api/chorequest/chores/?page=4",
  "previous": "https://waya-mentorled.onrender.com/api/chorequest/chores/?page=2",
  "results": [
    {
      "id": "3fa85f64-5717-4562-b3fc-2c963f66afa6",
      "title": "string",
      "description": "string",
      "assignedTo": "3fa85f64-5717-4562-b3fc-2c963f66afa6",
      "assignedToName": "string",
      "assignedToUsername": "string",
      "status": "pending",
      "amount": "0",
      "createdAt": "2025-07-14T21:51:55.982Z",
      "completedAt": "2025-07-14T21:51:55.982Z",
      "parentId": "3fa85f64-5717-4562-b3fc-2c963f66afa6",
      "category": "string",
      "isRedeemed": true
    }
  ]
}

PATCH https://waya-mentorled.onrender.com/api/chorequest/chores/{id}/redeem/
{
  "title": "string",
  "amount": "54306.2",
  "isRedeemed": true
}


PUT https://waya-mentorled.onrender.com/api/chorequest/chores/{id}/status/
{
  "status": "pending"
}
PATCH https://waya-mentorled.onrender.com/api/chorequest/chores/{id}/status/
{
  "status": "pending"
}

GET https://waya-mentorled.onrender.com/api/earningmeter/dashboard/ 
{
  "bar_chart": [
    {
      "day": "Sunday",
      "earned": "0.00",
      "spent": "0.00"
    },
    {
      "day": "Monday",
      "earned": "0.00",
      "spent": "0.00"
    },
    {
      "day": "Tuesday",
      "earned": "0.00",
      "spent": "0.00"
    },
    {
      "day": "Wednesday",
      "earned": "0.00",
      "spent": "0.00"
    },
    {
      "day": "Thursday",
      "earned": "0.00",
      "spent": "0.00"
    },
    {
      "day": "Friday",
      "earned": "0.00",
      "spent": "0.00"
    },
    {
      "day": "Saturday",
      "earned": "0.00",
      "spent": "0.00"
    }
  ],
  "pie_chart": {
    "reward_saved": "500.00",
    "reward_spent": "800.00"
  },
  "recent_activities": [
    {
      "name": "Akorede Oguntolu",
      "activity": "Manual fund transfer",
      "amount": "NGN 150000.00",
      "status": "saved",
      "date": "05-July-2025"
    },
    {
      "name": "Akorede Oguntolu",
      "activity": "For a job well done",
      "amount": "NGN 1000.00",
      "status": "processing",
      "date": "05-July-2025"
    }
  ]
}
GET https://waya-mentorled.onrender.com/api/earningmeter/summary/ 
{
  "bar_chart": [],
  "pie_chart": {
    "reward_saved": "2000.00",
    "reward_spent": "0.00"
  },
  "recent_activities": [
    {
      "name": "Akorede Oguntolu",
      "activity": "Manual fund transfer",
      "amount": "NGN 150000.00",
      "status": "saved",
      "date": "05-July-2025"
    },
    {
      "name": "Akorede Oguntolu",
      "activity": "For a job well done",
      "amount": "NGN 1000.00",
      "status": "processing",
      "date": "05-July-2025"
    }
  ]
}

GET "https://waya-mentorled.onrender.com/api/earningmeter/totals/"
{
    "total_earned": "2000.00",
    "total_saved": "2000.00",
    "total_spent": "0.00"
}






GOAL GETTER - 404
curl -X GET "https://waya-mentorled.onrender.com/api/goalgetter/goals/"

  {
    "id": "5cad8ed0-2482-4d13-a312-72d8928898bb",
    "title": "Buy a Bicycle",
    "description": "Save up for a new bicycle.",
    "target_amount": "10000.00",
    "saved_amount": "2500.00",
    "target_duration_months": 6,
    "image": null,
    "trophy_image": null,
    "trophy_type": null,
    "status": "active",
    "created_at": "2025-07-01T12:00:00Z"
  },



POST - 200
curl -X POST "https://waya-mentorled.onrender.com/api/goalgetter/goals/" \ 
  -H "Authorization: Bearer eyJhbGciOiJIUzI1NiIsInR5cCI6IkpXVCJ9.eyJ0b2tlbl90eXBlIjoiYWNjZXNzIiwiZXhwIjoxNzUyODYzMjE2LCJpYXQiOjE3NTI3NzY4MTYsImp0aSI6IjA2ODI5MWFkODQ4ODQxNWNhMzAwOGNlZWIyNzE4NTM4IiwiY2hpbGRfaWQiOiIyNjgyNTkyOC02ZWI0LTRhYWYtOGE4NC0wNDc1MjlhYzQ4ZjgiLCJjaGlsZF91c2VybmFtZSI6Im1hdmVyaWNrIn0.oJzRGJ9SMsrSQBwALCWtZ3l5Llxz4Ynpt_lToxy8l3c" \
  -H "Content-Type: application/json" \
  -d '{
        "title": "Buy a Bicycle",
        "target_amount": "10000.00",
        "target_duration_months": 3,
        "due_date": "2025-09-30"
      }'

Response 
{
  "id": "5cad8ed0-2482-4d13-a312-72d8928898bb",
  "title": "Buy a Bicycle",
  "description": "",
  "target_amount": "10000.00",
  "target_duration_months": 3,
  "image": null,
  "status": "active",
  "created_at": "2025-07-17T21:15:22.089500Z",
  "achieved_at": null,
  "saved_amount": 0,
  "percent_completed": 0,
  "time_remaining": 89,
  "trophy_image": null,
  "trophy_type": null
}

GET - 200
curl -X GET "https://waya-mentorled.onrender.com/api/goalgetter/goals/5cad8ed0-2482-4d13-a312-72d8928898bb/" \ 
  -H "Authorization: Bearer eyJhbGciOiJIUzI1NiIsInR5cCI6IkpXVCJ9.eyJ0b2tlbl90eXBlIjoiYWNjZXNzIiwiZXhwIjoxNzUyODYzMjE2LCJpYXQiOjE3NTI3NzY4MTYsImp0aSI6IjA2ODI5MWFkODQ4ODQxNWNhMzAwOGNlZWIyNzE4NTM4IiwiY2hpbGRfaWQiOiIyNjgyNTkyOC02ZWI0LTRhYWYtOGE4NC0wNDc1MjlhYzQ4ZjgiLCJjaGlsZF91c2VybmFtZSI6Im1hdmVyaWNrIn0.oJzRGJ9SMsrSQBwALCWtZ3l5Llxz4Ynpt_lToxy8l3c"

  Response
  {
  "id": "5cad8ed0-2482-4d13-a312-72d8928898bb",
  "title": "Buy a Bicycle",
  "description": "",
  "target_amount": "10000.00",
  "target_duration_months": 3,
  "image": null,
  "status": "active",
  "created_at": "2025-07-17T21:15:22.089500Z",
  "achieved_at": null,
  "saved_amount": 0,
  "percent_completed": 0,
  "time_remaining": 89,
  "trophy_image": null,
  "trophy_type": null
}

PATCH - 200
curl -X PATCH "https://waya-mentorled.onrender.com/api/goalgetter/goals/5cad8ed0-2482-4d13-a312-72d8928898bb/" \ 
  -H "Authorization: Bearer eyJhbGciOiJIUzI1NiIsInR5cCI6IkpXVCJ9.eyJ0b2tlbl90eXBlIjoiYWNjZXNzIiwiZXhwIjoxNzUyODYzMjE2LCJpYXQiOjE3NTI3NzY4MTYsImp0aSI6IjA2ODI5MWFkODQ4ODQxNWNhMzAwOGNlZWIyNzE4NTM4IiwiY2hpbGRfaWQiOiIyNjgyNTkyOC02ZWI0LTRhYWYtOGE4NC0wNDc1MjlhYzQ4ZjgiLCJjaGlsZF91c2VybmFtZSI6Im1hdmVyaWNrIn0.oJzRGJ9SMsrSQBwALCWtZ3l5Llxz4Ynpt_lToxy8l3c" | jq
  -H "Content-Type: application/json" \
  -d '{"title": "Buy a Hair Relaxer"}'

  Response
  {
  "id": "5cad8ed0-2482-4d13-a312-72d8928898bb",
  "title": "Buy a Hair Relaxer",
  "description": "",
  "target_amount": "10000.00",
  "target_duration_months": 3,
  "image": null,
  "status": "active",
  "created_at": "2025-07-17T21:15:22.089500Z",
  "achieved_at": null,
  "saved_amount": 0,
  "percent_completed": 0,
  "time_remaining": 89,
  "trophy_image": null,
  "trophy_type": null
}

POST - - 200
POST "https://waya-mentorled.onrender.com/api/goalgetter/goals/5cad8ed0-2482-4d13-a312-72d8928898bb/contribute/"  200
{
  "id": "63956f3e-b2c2-4c8a-a069-91acfae74a94",
  "goal": "5cad8ed0-2482-4d13-a312-72d8928898bb",
  "amount": "1500.00",
  "transaction_date": "2025-07-18T11:29:07.077057Z"
}


GET - 404
GET "https://waya-mentorled.onrender.com/api/goalgetter/goals/summary/" 
{
  "total_saved": "2500.00",
  "active_goals": 2,
  "achieved_goals": 1
}

DELETE - 200
DELETE "https://waya-mentorled.onrender.com/api/goalgetter/goals/c92b8b24-bb22-4916-b391-8fd5eda3e2eb/" \
  -H "Authorization: Bearer eyJhbGciOiJIUzI1NiIsInR5cCI6IkpXVCJ9.eyJ0b2tlbl90eXBlIjoiYWNjZXNzIiwiZXhwIjoxNzUyOTIyMTQwLCJpYXQiOjE3NTI4MzU3NDAsImp0aSI6IjhhZmQ2ODJkNGE1YzRjMTlhY2M3NDU2MzJhN2YyYjg5IiwiY2hpbGRfaWQiOiIyNjgyNTkyOC02ZWI0LTRhYWYtOGE4NC0wNDc1MjlhYzQ4ZjgiLCJjaGlsZF91c2VybmFtZSI6Im1hdmVyaWNrIn0.uqAj05pEKgAXNs-3m3oSQ8phMOqRNgo6jIOtijaQlio" \
| jq